OCR_FPGA.sim/sim_1/behav/xsim/simulate.log
Vivado Simulator 2017.4
Time resolution is 1 ps
--- y43 = 0.000000 y42 = 0.000000 y41 = 0.000000 y40 = 0.000000 z = xxxx
--- y43 = 0.000000 y42 = 0.000000 y41 = 0.000000 y40 = 0.000000 z = 0001
--- y43 = 0.028625 y42 = 0.021362 y41 = 0.025208 y40 = 0.022156 z = 0001
--- y43 = 0.028625 y42 = 0.021362 y41 = 0.025208 y40 = 0.022156 z = 0001
--- y43 = 0.028625 y42 = 0.021362 y41 = 0.025208 y40 = 0.022156 z = 0001
--- y43 = 0.028625 y42 = 0.021362 y41 = 0.025208 y40 = 0.022156 z = 0001
--- y43 = 0.028625 y42 = 0.021362 y41 = 0.025208 y40 = 0.022156 z = 0001
--- y43 = 0.028625 y42 = 0.021362 y41 = 0.025208 y40 = 0.022156 z = 0001
--- y43 = 0.028625 y42 = 0.021362 y41 = 0.025208 y40 = 0.022156 z = 0001
--- y43 = 0.028625 y42 = 0.021362 y41 = 0.025208 y40 = 0.022156 z = 0001
--- y43 = 0.031555 y42 = 0.023560 y41 = 0.027832 y40 = 0.029053 z = 0001
--- y43 = 0.035217 y42 = 0.026306 y41 = 0.031006 y40 = 0.037659 z = 0001
--- y43 = 0.039734 y42 = 0.029602 y41 = 0.035156 y40 = 0.048218 z = 0001
--- y43 = 0.044983 y42 = 0.033691 y41 = 0.039551 y40 = 0.061462 z = 0001
--- y43 = 0.051331 y42 = 0.038513 y41 = 0.045349 y40 = 0.078857 z = 0001
--- y43 = 0.058838 y42 = 0.044067 y41 = 0.051941 y40 = 0.100464 z = 0001
--- y43 = 0.067383 y42 = 0.050476 y41 = 0.059326 y40 = 0.127747 z = 0001
--- y43 = 0.077087 y42 = 0.057617 y41 = 0.067871 y40 = 0.161804 z = 0001
--- y43 = 0.087891 y42 = 0.065674 y41 = 0.077332 y40 = 0.204285 z = 0001
--- y43 = 0.099243 y42 = 0.074341 y41 = 0.087524 y40 = 0.255981 z = 0001
--- y43 = 0.111023 y42 = 0.083069 y41 = 0.097778 y40 = 0.317871 z = 0001
--- y43 = 0.122192 y42 = 0.091553 y41 = 0.107605 y40 = 0.390503 z = 0001
--- y43 = 0.131714 y42 = 0.098755 y41 = 0.116211 y40 = 0.472717 z = 0001
--- y43 = 0.138306 y42 = 0.103577 y41 = 0.121887 y40 = 0.561523 z = 0001
--- y43 = 0.140381 y42 = 0.105164 y41 = 0.123718 y40 = 0.652527 z = 0001
--- y43 = 0.136963 y42 = 0.102600 y41 = 0.120789 y40 = 0.738831 z = 0001
--- y43 = 0.128235 y42 = 0.096069 y41 = 0.112915 y40 = 0.814697 z = 0001
--- y43 = 0.114685 y42 = 0.085815 y41 = 0.101196 y40 = 0.873657 z = 0001
--- y43 = 0.098511 y42 = 0.073669 y41 = 0.086853 y40 = 0.915833 z = 0001
--- y43 = 0.081665 y42 = 0.061035 y41 = 0.071899 y40 = 0.942627 z = 0001
--- y43 = 0.066040 y42 = 0.049438 y41 = 0.058105 y40 = 0.958435 z = 0001
--- y43 = 0.052551 y42 = 0.039246 y41 = 0.046204 y40 = 0.968567 z = 0001
--- y43 = 0.041382 y42 = 0.030884 y41 = 0.036377 y40 = 0.973877 z = 0001
--- y43 = 0.032288 y42 = 0.024109 y41 = 0.028381 y40 = 0.976501 z = 0001
--- y43 = 0.025391 y42 = 0.018921 y41 = 0.022217 y40 = 0.979065 z = 0001
--- y43 = 0.019775 y42 = 0.014709 y41 = 0.017395 y40 = 0.981567 z = 0001
--- y43 = 0.015503 y42 = 0.011414 y41 = 0.013550 y40 = 0.983643 z = 0001
--- y43 = 0.012146 y42 = 0.008911 y41 = 0.010681 y40 = 0.985474 z = 0001
--- y43 = 0.009644 y42 = 0.007080 y41 = 0.008423 y40 = 0.986328 z = 0001
--- y43 = 0.007568 y42 = 0.005554 y41 = 0.006592 y40 = 0.986450 z = 0001
--- y43 = 0.006104 y42 = 0.004456 y41 = 0.005371 y40 = 0.986694 z = 0001
--- y43 = 0.004761 y42 = 0.003479 y41 = 0.004211 y40 = 0.987183 z = 0001
--- y43 = 0.003784 y42 = 0.002808 y41 = 0.003418 y40 = 0.987244 z = 0001
--- y43 = 0.003052 y42 = 0.002197 y41 = 0.002747 y40 = 0.987671 z = 0001
--- y43 = 0.002563 y42 = 0.001709 y41 = 0.002136 y40 = 0.987915 z = 0001
--- y43 = 0.002136 y42 = 0.001465 y41 = 0.001831 y40 = 0.987976 z = 0001
--- y43 = 0.001770 y42 = 0.001160 y41 = 0.001465 y40 = 0.988220 z = 0001
--- y43 = 0.001526 y42 = 0.001099 y41 = 0.001282 y40 = 0.988037 z = 0001
--- y43 = 0.001282 y42 = 0.000854 y41 = 0.001099 y40 = 0.988403 z = 0001
--- y43 = 0.001099 y42 = 0.000610 y41 = 0.000977 y40 = 0.988403 z = 0001
--- y43 = 0.001038 y42 = 0.000732 y41 = 0.000916 y40 = 0.988647 z = 0001
--- y43 = 0.000977 y42 = 0.000549 y41 = 0.000793 y40 = 0.988708 z = 0001
--- y43 = 0.000854 y42 = 0.000549 y41 = 0.000732 y40 = 0.988770 z = 0001
--- y43 = 0.000793 y42 = 0.000427 y41 = 0.000610 y40 = 0.988831 z = 0001
--- y43 = 0.000610 y42 = 0.000427 y41 = 0.000671 y40 = 0.988831 z = 0001
--- y43 = 0.000549 y42 = 0.000305 y41 = 0.000488 y40 = 0.988770 z = 0001
--- y43 = 0.000549 y42 = 0.000366 y41 = 0.000427 y40 = 0.988770 z = 0001
--- y43 = 0.000427 y42 = 0.000122 y41 = 0.000305 y40 = 0.988770 z = 0001
--- y43 = 0.000366 y42 = 0.000183 y41 = 0.000305 y40 = 0.988647 z = 0001
--- y43 = 0.000427 y42 = 0.000183 y41 = 0.000305 y40 = 0.988586 z = 0001
--- y43 = 0.000305 y42 = 0.000244 y41 = 0.000366 y40 = 0.988525 z = 0001
--- y43 = 0.000366 y42 = 0.000122 y41 = 0.000122 y40 = 0.988647 z = 0001
--- y43 = 0.000305 y42 = 0.000000 y41 = 0.000122 y40 = 0.988464 z = 0001
--- y43 = 0.002075 y42 = 0.001587 y41 = 0.002014 y40 = 1.916321 z = 0111
--- y43 = 0.000366 y42 = 0.000427 y41 = 0.000305 y40 = 1.347900 z = 1000
--- y43 = 0.052368 y42 = 0.376831 y41 = 0.383667 y40 = 0.905334 z = 1111
--- y43 = 0.001343 y42 = 0.009521 y41 = 0.009705 y40 = 0.022644 z = 1011
--- y43 = 0.503906 y42 = 0.756470 y41 = 0.780518 y40 = 1.227966 z = 0110
--- y43 = 0.483582 y42 = 0.713318 y41 = 0.746094 y40 = 1.170288 z = 0000
--- y43 = 0.036377 y42 = 0.361633 y41 = 0.358398 y40 = 0.240051 z = 1100
--- y43 = 0.000000 y42 = 0.041626 y41 = 0.023621 y40 = 0.005493 z = 0001
--- y43 = 0.000000 y42 = 0.000000 y41 = 0.000000 y40 = 0.000000 z = 0101
--- y43 = 0.000000 y42 = 0.000000 y41 = 0.000000 y40 = 0.000000 z = 0101
--- y43 = 0.000000 y42 = 0.151245 y41 = 0.024719 y40 = 0.004211 z = 1101
--- y43 = 0.000000 y42 = 0.000000 y41 = 0.000000 y40 = 0.000000 z = 1110
--- y43 = 0.000000 y42 = 0.000000 y41 = 0.000000 y40 = 0.000000 z = 1010
--- y43 = 0.000000 y42 = 0.476868 y41 = 0.126465 y40 = 0.242371 z = 0100
--- y43 = 0.000000 y42 = 0.264099 y41 = 0.025818 y40 = 0.117065 z = 0011
--- y43 = 0.000000 y42 = 0.199036 y41 = 0.014709 y40 = 0.050781 z = 0010
--- y43 = 0.087341 y42 = 0.206177 y41 = 0.155518 y40 = 0.143677 z = 1001
--- y43 = 0.136169 y42 = 0.316223 y41 = 0.268494 y40 = 0.221008 z = 0111
--- y43 = 0.152161 y42 = 0.587280 y41 = 0.446167 y40 = 0.442261 z = 1000
--- y43 = 0.195251 y42 = 0.776978 y41 = 0.621887 y40 = 0.612915 z = 1111
--- y43 = 0.267395 y42 = 0.421448 y41 = 0.342163 y40 = 0.334167 z = 1011
--- y43 = 1.309570 y42 = 1.521545 y41 = 1.398682 y40 = 1.334351 z = 0110
--- y43 = 1.069519 y42 = 0.938171 y41 = 1.100464 y40 = 1.047852 z = 0000
--- y43 = 0.000000 y42 = 0.000000 y41 = 0.000000 y40 = 0.000000 z = 0000
--- y43 = 0.000000 y42 = 0.000000 y41 = 0.000000 y40 = 0.000000 z = 1100
--- y43 = 0.000000 y42 = 0.000000 y41 = 0.000000 y40 = 0.000000 z = 0001
--- y43 = 0.000000 y42 = 0.000000 y41 = 0.000000 y40 = 0.000000 z = 0101
--- y43 = 0.000000 y42 = 0.000000 y41 = 0.000000 y40 = 0.000000 z = 1101
--- y43 = 0.000000 y42 = 0.000000 y41 = 0.000000 y40 = 0.000000 z = 1110
--- y43 = 0.000000 y42 = 0.000000 y41 = 0.000000 y40 = 0.000000 z = 1010
--- y43 = 0.000000 y42 = 0.000000 y41 = 0.000000 y40 = 0.000000 z = 0100
--- y43 = 0.000000 y42 = 0.000000 y41 = 0.000000 y40 = 0.000000 z = 0011
--- y43 = 0.000000 y42 = 0.000000 y41 = 0.000000 y40 = 0.000000 z = 0010
--- y43 = 0.000000 y42 = 0.000000 y41 = 0.000000 y40 = 0.000000 z = 1001
--- y43 = 0.000000 y42 = 0.000000 y41 = 0.000000 y40 = 0.000000 z = 0111
--- y43 = 0.000000 y42 = 0.000000 y41 = 0.000000 y40 = 0.000000 z = 1000
--- y43 = 0.000000 y42 = 0.000000 y41 = 0.000000 y40 = 0.000000 z = 1111
--- y43 = 0.000000 y42 = 0.000000 y41 = 0.000000 y40 = 0.000000 z = 1011
--- y43 = 0.000000 y42 = 0.000000 y41 = 0.000000 y40 = 0.000000 z = 1011
--- y43 = 0.000000 y42 = 0.000000 y41 = 0.000000 y40 = 0.000000 z = 0110
--- y43 = 0.000000 y42 = 0.000000 y41 = 0.000000 y40 = 0.000000 z = 0000
--- y43 = 0.000000 y42 = 0.000000 y41 = 0.000000 y40 = 0.000000 z = 1100
--- y43 = 0.000000 y42 = 0.000000 y41 = 0.000000 y40 = 0.000000 z = 0001
--- y43 = 0.000000 y42 = 0.000000 y41 = 0.000000 y40 = 0.000000 z = 0101
--- y43 = 0.000000 y42 = 0.000000 y41 = 0.000000 y40 = 0.000000 z = 1101
--- y43 = 0.000000 y42 = 0.000000 y41 = 0.000000 y40 = 0.000000 z = 1110
--- y43 = 0.000000 y42 = 0.000000 y41 = 0.000000 y40 = 0.000000 z = 1010
--- y43 = 0.000000 y42 = 0.000000 y41 = 0.000000 y40 = 0.000000 z = 0100
--- y43 = 0.000000 y42 = 0.000000 y41 = 0.000000 y40 = 0.000000 z = 0011
--- y43 = 0.000000 y42 = 0.000000 y41 = 0.000000 y40 = 0.000000 z = 0010
--- y43 = 0.000000 y42 = 0.000000 y41 = 0.000000 y40 = 0.000000 z = 1001
--- y43 = 0.000000 y42 = 0.000000 y41 = 0.000000 y40 = 0.000000 z = 0111
--- y43 = 0.000000 y42 = 0.000000 y41 = 0.000000 y40 = 0.000000 z = 0111
--- y43 = 0.000000 y42 = 0.000000 y41 = 0.000000 y40 = 0.000000 z = 1000
--- y43 = 0.000000 y42 = 0.000000 y41 = 0.000000 y40 = 0.000000 z = 1111
--- y43 = 0.000000 y42 = 0.000000 y41 = 0.000000 y40 = 0.000000 z = 1011
--- y43 = 0.000000 y42 = 0.000000 y41 = 0.000000 y40 = 0.000000 z = 0110
--- y43 = 0.000000 y42 = 0.000000 y41 = 0.000000 y40 = 0.000000 z = 0000
--- y43 = 0.000000 y42 = 0.000000 y41 = 0.000000 y40 = 0.000000 z = 1100
--- y43 = 0.000000 y42 = 0.000000 y41 = 0.000000 y40 = 0.000000 z = 0001
--- y43 = 0.000000 y42 = 0.000000 y41 = 0.000000 y40 = 0.000000 z = 0101
--- y43 = 0.000000 y42 = 0.000000 y41 = 0.000000 y40 = 0.000000 z = 1101
--- y43 = 0.000000 y42 = 0.000000 y41 = 0.000000 y40 = 0.000000 z = 1110
--- y43 = 0.000000 y42 = 0.000000 y41 = 0.000000 y40 = 0.000000 z = 1010
--- y43 = 0.000000 y42 = 0.000000 y41 = 0.000000 y40 = 0.000000 z = 0100
--- y43 = 0.000000 y42 = 0.000000 y41 = 0.000000 y40 = 0.000000 z = 0011
--- y43 = 0.000000 y42 = 0.000000 y41 = 0.000000 y40 = 0.000000 z = 0011
--- y43 = 0.000000 y42 = 0.000000 y41 = 0.000000 y40 = 0.000000 z = 0010
--- y43 = 0.000000 y42 = 0.000000 y41 = 0.000000 y40 = 0.000000 z = 1001
--- y43 = 0.000000 y42 = 0.000000 y41 = 0.000000 y40 = 0.000000 z = 0111
--- y43 = 0.000000 y42 = 0.000000 y41 = 0.000000 y40 = 0.000000 z = 1000
--- y43 = 0.000000 y42 = 0.000000 y41 = 0.000000 y40 = 0.000000 z = 1111
--- y43 = 0.000000 y42 = 0.000000 y41 = 0.000000 y40 = 0.000000 z = 1011
--- y43 = 0.000000 y42 = 0.000000 y41 = 0.000000 y40 = 0.000000 z = 0110
--- y43 = 0.000000 y42 = 0.000000 y41 = 0.000000 y40 = 0.000000 z = 0000
--- y43 = 0.000000 y42 = 0.000000 y41 = 0.000000 y40 = 0.000000 z = 1100
--- y43 = 0.000000 y42 = 0.000000 y41 = 0.000000 y40 = 0.000000 z = 0001
--- y43 = 0.000000 y42 = 0.000000 y41 = 0.000000 y40 = 0.000000 z = 0101
--- y43 = 0.000000 y42 = 0.000000 y41 = 0.000000 y40 = 0.000000 z = 1101
--- y43 = 0.000000 y42 = 0.000000 y41 = 0.000000 y40 = 0.000000 z = 1110
--- y43 = 0.000000 y42 = 0.000000 y41 = 0.000000 y40 = 0.000000 z = 1110
--- y43 = 0.000000 y42 = 0.000000 y41 = 0.000000 y40 = 0.000000 z = 1010
--- y43 = 0.000000 y42 = 0.000000 y41 = 0.000000 y40 = 0.000000 z = 0100
--- y43 = 0.000000 y42 = 0.000000 y41 = 0.000000 y40 = 0.000000 z = 0011
--- y43 = 0.000000 y42 = 0.000000 y41 = 0.000000 y40 = 0.000000 z = 0010
--- y43 = 0.000000 y42 = 0.000000 y41 = 0.000000 y40 = 0.000000 z = 1001
--- y43 = 0.000000 y42 = 0.000000 y41 = 0.000000 y40 = 0.000000 z = 0111
--- y43 = 0.000000 y42 = 0.000000 y41 = 0.000000 y40 = 0.000000 z = 1000
--- y43 = 0.000000 y42 = 0.000000 y41 = 0.000000 y40 = 0.000000 z = 1111
--- y43 = 0.000000 y42 = 0.000000 y41 = 0.000000 y40 = 0.000000 z = 1011
--- y43 = 0.000000 y42 = 0.000000 y41 = 0.000000 y40 = 0.000000 z = 0110
--- y43 = 0.000000 y42 = 0.000000 y41 = 0.000000 y40 = 0.000000 z = 0000
--- y43 = 0.000000 y42 = 0.000000 y41 = 0.000000 y40 = 0.000000 z = 1100
--- y43 = 0.000000 y42 = 0.000000 y41 = 0.000000 y40 = 0.000000 z = 0001
--- y43 = 0.000000 y42 = 0.000000 y41 = 0.000000 y40 = 0.000000 z = 0101
--- y43 = 0.000000 y42 = 0.000000 y41 = 0.000000 y40 = 0.000000 z = 0101
--- y43 = 0.000000 y42 = 0.000000 y41 = 0.000000 y40 = 0.000000 z = 1101
--- y43 = 0.000000 y42 = 0.000000 y41 = 0.000000 y40 = 0.000000 z = 1110
--- y43 = 0.000000 y42 = 0.000000 y41 = 0.000000 y40 = 0.000000 z = 1010
--- y43 = 0.000000 y42 = 0.000000 y41 = 0.000000 y40 = 0.000000 z = 0100
--- y43 = 0.000000 y42 = 0.000000 y41 = 0.000000 y40 = 0.000000 z = 0011
--- y43 = 0.000000 y42 = 0.000000 y41 = 0.000000 y40 = 0.000000 z = 0010
--- y43 = 0.000000 y42 = 0.000000 y41 = 0.000000 y40 = 0.000000 z = 1001
--- y43 = 0.000000 y42 = 0.000000 y41 = 0.000000 y40 = 0.000000 z = 0111
--- y43 = 0.000000 y42 = 0.000000 y41 = 0.000000 y40 = 0.000000 z = 1000
--- y43 = 0.000000 y42 = 0.000000 y41 = 0.000000 y40 = 0.000000 z = 1111
--- y43 = 0.000000 y42 = 0.000000 y41 = 0.000000 y40 = 0.000000 z = 1011
--- y43 = 0.000000 y42 = 0.000000 y41 = 0.000000 y40 = 0.000000 z = 0110
--- y43 = 0.000000 y42 = 0.000000 y41 = 0.000000 y40 = 0.000000 z = 0000
--- y43 = 0.000000 y42 = 0.000000 y41 = 0.000000 y40 = 0.000000 z = 0000
--- y43 = 0.000000 y42 = 0.000000 y41 = 0.000000 y40 = 0.000000 z = 1100
--- y43 = 0.000000 y42 = 0.000000 y41 = 0.000000 y40 = 0.000000 z = 0001
--- y43 = 0.000000 y42 = 0.000000 y41 = 0.000000 y40 = 0.000000 z = 0101
--- y43 = 0.000000 y42 = 0.000000 y41 = 0.000000 y40 = 0.000000 z = 1101
--- y43 = 0.000000 y42 = 0.000000 y41 = 0.000000 y40 = 0.000000 z = 1110
--- y43 = 0.000000 y42 = 0.000000 y41 = 0.000000 y40 = 0.000000 z = 1010
--- y43 = 0.000000 y42 = 0.000000 y41 = 0.000000 y40 = 0.000000 z = 0100
--- y43 = 0.000000 y42 = 0.000000 y41 = 0.000000 y40 = 0.000000 z = 0011
--- y43 = 0.000000 y42 = 0.000000 y41 = 0.000000 y40 = 0.000000 z = 0010
--- y43 = 0.000000 y42 = 0.000000 y41 = 0.000000 y40 = 0.000000 z = 1001
--- y43 = 0.000000 y42 = 0.000000 y41 = 0.000000 y40 = 0.000000 z = 0111
--- y43 = 0.000000 y42 = 0.000000 y41 = 0.000000 y40 = 0.000000 z = 1000
--- y43 = 0.000000 y42 = 0.000000 y41 = 0.000000 y40 = 0.000000 z = 1111
--- y43 = 0.000000 y42 = 0.000000 y41 = 0.000000 y40 = 0.000000 z = 1111
--- y43 = 0.000000 y42 = 0.000000 y41 = 0.000000 y40 = 0.000000 z = 1011
--- y43 = 0.000000 y42 = 0.000000 y41 = 0.000000 y40 = 0.000000 z = 0110
--- y43 = 0.000000 y42 = 0.000000 y41 = 0.000000 y40 = 0.000000 z = 0000
--- y43 = 0.000000 y42 = 0.000000 y41 = 0.000000 y40 = 0.000000 z = 1100
--- y43 = 0.000000 y42 = 0.000000 y41 = 0.000000 y40 = 0.000000 z = 0001
--- y43 = 0.000000 y42 = 0.000000 y41 = 0.000000 y40 = 0.000000 z = 0101
--- y43 = 0.000000 y42 = 0.000000 y41 = 0.000000 y40 = 0.000000 z = 1101
--- y43 = 0.000000 y42 = 0.000000 y41 = 0.000000 y40 = 0.000000 z = 1110
--- y43 = 0.000000 y42 = 0.000000 y41 = 0.000000 y40 = 0.000000 z = 1010
--- y43 = 0.000000 y42 = 0.000000 y41 = 0.000000 y40 = 0.000000 z = 0100
--- y43 = 0.000000 y42 = 0.000000 y41 = 0.000000 y40 = 0.000000 z = 0011
--- y43 = 0.000000 y42 = 0.000000 y41 = 0.000000 y40 = 0.000000 z = 0010
--- y43 = 0.000000 y42 = 0.000000 y41 = 0.000000 y40 = 0.000000 z = 1001
--- y43 = 0.000000 y42 = 0.000000 y41 = 0.000000 y40 = 0.000000 z = 0111
--- y43 = 0.000000 y42 = 0.000000 y41 = 0.000000 y40 = 0.000000 z = 0111
--- y43 = 0.000000 y42 = 0.000000 y41 = 0.000000 y40 = 0.000000 z = 1000
--- y43 = 0.000000 y42 = 0.000000 y41 = 0.000000 y40 = 0.000000 z = 1111
--- y43 = 0.000000 y42 = 0.000000 y41 = 0.000000 y40 = 0.000000 z = 1011
--- y43 = 0.000000 y42 = 0.000000 y41 = 0.000000 y40 = 0.000000 z = 0110
--- y43 = 0.000000 y42 = 0.000000 y41 = 0.000000 y40 = 0.000000 z = 0000
--- y43 = 0.000000 y42 = 0.000000 y41 = 0.000000 y40 = 0.000000 z = 1100
--- y43 = 0.000000 y42 = 0.000000 y41 = 0.000000 y40 = 0.000000 z = 0001
--- y43 = 0.000000 y42 = 0.000000 y41 = 0.000000 y40 = 0.000000 z = 0101
--- y43 = 0.000000 y42 = 0.000000 y41 = 0.000000 y40 = 0.000000 z = 1101
--- y43 = 0.000000 y42 = 0.000000 y41 = 0.000000 y40 = 0.000000 z = 1110
--- y43 = 0.000000 y42 = 0.000000 y41 = 0.000000 y40 = 0.000000 z = 1010
--- y43 = 0.000000 y42 = 0.000000 y41 = 0.000000 y40 = 0.000000 z = 0100
--- y43 = 0.000000 y42 = 0.000000 y41 = 0.000000 y40 = 0.000000 z = 0011
--- y43 = 0.000000 y42 = 0.000000 y41 = 0.000000 y40 = 0.000000 z = 0011
--- y43 = 0.000000 y42 = 0.000000 y41 = 0.000000 y40 = 0.000000 z = 0010
--- y43 = 0.000000 y42 = 0.000000 y41 = 0.000000 y40 = 0.000000 z = 1001
--- y43 = 0.000000 y42 = 0.000000 y41 = 0.000000 y40 = 0.000000 z = 0111
--- y43 = 0.000000 y42 = 0.000000 y41 = 0.000000 y40 = 0.000000 z = 1000
--- y43 = 0.000000 y42 = 0.000000 y41 = 0.000000 y40 = 0.000000 z = 1111
--- y43 = 0.000000 y42 = 0.000000 y41 = 0.000000 y40 = 0.000000 z = 1011
--- y43 = 0.000000 y42 = 0.000000 y41 = 0.000000 y40 = 0.000000 z = 0110
--- y43 = 0.000000 y42 = 0.000000 y41 = 0.000000 y40 = 0.000000 z = 0000
--- y43 = 0.000000 y42 = 0.000000 y41 = 0.000000 y40 = 0.000000 z = 1100
--- y43 = 0.000000 y42 = 0.000000 y41 = 0.000000 y40 = 0.000000 z = 0001
--- y43 = 0.000000 y42 = 0.000000 y41 = 0.000000 y40 = 0.000000 z = 0101
--- y43 = 0.000000 y42 = 0.000000 y41 = 0.000000 y40 = 0.000000 z = 1101
--- y43 = 0.000000 y42 = 0.000000 y41 = 0.000000 y40 = 0.000000 z = 1110
--- y43 = 0.000000 y42 = 0.000000 y41 = 0.000000 y40 = 0.000000 z = 1110
--- y43 = 0.000000 y42 = 0.000000 y41 = 0.000000 y40 = 0.000000 z = 1010
--- y43 = 0.000000 y42 = 0.000000 y41 = 0.000000 y40 = 0.000000 z = 0100
--- y43 = 0.000000 y42 = 0.000000 y41 = 0.000000 y40 = 0.000000 z = 0011
--- y43 = 0.000000 y42 = 0.000000 y41 = 0.000000 y40 = 0.000000 z = 0010
--- y43 = 0.000000 y42 = 0.000000 y41 = 0.000000 y40 = 0.000000 z = 1001
--- y43 = 0.000000 y42 = 0.000000 y41 = 0.000000 y40 = 0.000000 z = 0111
--- y43 = 0.000000 y42 = 0.000000 y41 = 0.000000 y40 = 0.000000 z = 1000
--- y43 = 0.000000 y42 = 0.000000 y41 = 0.000000 y40 = 0.000000 z = 1111
--- y43 = 0.000000 y42 = 0.000000 y41 = 0.000000 y40 = 0.000000 z = 1011
--- y43 = 0.000000 y42 = 0.000000 y41 = 0.000000 y40 = 0.000000 z = 0110
--- y43 = 0.000000 y42 = 0.000000 y41 = 0.000000 y40 = 0.000000 z = 0000
--- y43 = 0.000000 y42 = 0.000000 y41 = 0.000000 y40 = 0.000000 z = 1100
--- y43 = 0.000000 y42 = 0.000000 y41 = 0.000000 y40 = 0.000000 z = 0001
--- y43 = 0.000000 y42 = 0.000000 y41 = 0.000000 y40 = 0.000000 z = 0001
--- y43 = 0.000000 y42 = 0.000000 y41 = 0.000000 y40 = 0.000000 z = 0101
--- y43 = 0.000000 y42 = 0.000000 y41 = 0.000000 y40 = 0.000000 z = 1101
--- y43 = 0.000000 y42 = 0.000000 y41 = 0.000000 y40 = 0.000000 z = 1110
--- y43 = 0.000000 y42 = 0.000000 y41 = 0.000000 y40 = 0.000000 z = 1010
--- y43 = 0.000000 y42 = 0.000000 y41 = 0.000000 y40 = 0.000000 z = 0100
--- y43 = 0.000000 y42 = 0.000000 y41 = 0.000000 y40 = 0.000000 z = 0011
--- y43 = 0.000000 y42 = 0.000000 y41 = 0.000000 y40 = 0.000000 z = 0010
--- y43 = 0.000000 y42 = 0.000000 y41 = 0.000000 y40 = 0.000000 z = 1001
--- y43 = 0.000000 y42 = 0.000000 y41 = 0.000000 y40 = 0.000000 z = 0111
--- y43 = 0.000000 y42 = 0.000000 y41 = 0.000000 y40 = 0.000000 z = 1000
--- y43 = 0.000000 y42 = 0.000000 y41 = 0.000000 y40 = 0.000000 z = 1111
--- y43 = 0.000000 y42 = 0.000000 y41 = 0.000000 y40 = 0.000000 z = 1011
--- y43 = 0.000000 y42 = 0.000000 y41 = 0.000000 y40 = 0.000000 z = 0110
--- y43 = 0.000000 y42 = 0.000000 y41 = 0.000000 y40 = 0.000000 z = 0000
--- y43 = 0.000000 y42 = 0.000000 y41 = 0.000000 y40 = 0.000000 z = 0000
--- y43 = 0.000000 y42 = 0.000000 y41 = 0.000000 y40 = 0.000000 z = 1100
--- y43 = 0.000000 y42 = 0.000000 y41 = 0.000000 y40 = 0.000000 z = 0001
--- y43 = 0.000000 y42 = 0.000000 y41 = 0.000000 y40 = 0.000000 z = 0101
--- y43 = 0.000000 y42 = 0.000000 y41 = 0.000000 y40 = 0.000000 z = 1101
--- y43 = 0.000000 y42 = 0.000000 y41 = 0.000000 y40 = 0.000000 z = 1110
--- y43 = 0.000000 y42 = 0.000000 y41 = 0.000000 y40 = 0.000000 z = 1010
--- y43 = 0.000000 y42 = 0.000000 y41 = 0.000000 y40 = 0.000000 z = 0100
--- y43 = 0.000000 y42 = 0.000000 y41 = 0.000000 y40 = 0.000000 z = 0011
--- y43 = 0.000000 y42 = 0.000000 y41 = 0.000000 y40 = 0.000000 z = 0010
--- y43 = 0.000000 y42 = 0.000000 y41 = 0.000000 y40 = 0.000000 z = 1001
--- y43 = 0.000000 y42 = 0.000000 y41 = 0.000000 y40 = 0.000000 z = 0111
--- y43 = 0.000000 y42 = 0.000000 y41 = 0.000000 y40 = 0.000000 z = 1000
--- y43 = 0.000000 y42 = 0.000000 y41 = 0.000000 y40 = 0.000000 z = 1111
--- y43 = 0.000000 y42 = 0.000000 y41 = 0.000000 y40 = 0.000000 z = 1111
--- y43 = 0.000000 y42 = 0.000000 y41 = 0.000000 y40 = 0.000000 z = 1011
--- y43 = 0.000000 y42 = 0.000000 y41 = 0.000000 y40 = 0.000000 z = 0110
--- y43 = 0.000000 y42 = 0.000000 y41 = 0.000000 y40 = 0.000000 z = 0000
--- y43 = 0.000000 y42 = 0.000000 y41 = 0.000000 y40 = 0.000000 z = 1100
--- y43 = 0.000000 y42 = 0.000000 y41 = 0.000000 y40 = 0.000000 z = 0001
--- y43 = 0.000000 y42 = 0.000000 y41 = 0.000000 y40 = 0.000000 z = 0101
--- y43 = 0.000000 y42 = 0.000000 y41 = 0.000000 y40 = 0.000000 z = 1101
--- y43 = 0.000000 y42 = 0.000000 y41 = 0.000000 y40 = 0.000000 z = 1110
--- y43 = 0.000000 y42 = 0.000000 y41 = 0.000000 y40 = 0.000000 z = 1010
--- y43 = 0.000000 y42 = 0.000000 y41 = 0.000000 y40 = 0.000000 z = 0100
--- y43 = 0.000000 y42 = 0.000000 y41 = 0.000000 y40 = 0.000000 z = 0011
--- y43 = 0.000000 y42 = 0.000000 y41 = 0.000000 y40 = 0.000000 z = 0010
--- y43 = 0.000000 y42 = 0.000000 y41 = 0.000000 y40 = 0.000000 z = 1001
--- y43 = 0.000000 y42 = 0.000000 y41 = 0.000000 y40 = 0.000000 z = 1001
--- y43 = 0.000000 y42 = 0.000000 y41 = 0.000000 y40 = 0.000000 z = 0111
--- y43 = 0.000000 y42 = 0.000000 y41 = 0.000000 y40 = 0.000000 z = 1000
--- y43 = 0.000000 y42 = 0.000000 y41 = 0.000000 y40 = 0.000000 z = 1111
--- y43 = 0.000000 y42 = 0.000000 y41 = 0.000000 y40 = 0.000000 z = 1011
--- y43 = 0.000000 y42 = 0.000000 y41 = 0.000000 y40 = 0.000000 z = 0110
--- y43 = 0.000000 y42 = 0.000000 y41 = 0.000000 y40 = 0.000000 z = 0000
--- y43 = 0.000000 y42 = 0.000000 y41 = 0.000000 y40 = 0.000000 z = 1100
--- y43 = 0.000000 y42 = 0.000000 y41 = 0.000000 y40 = 0.000000 z = 0001
--- y43 = 0.000000 y42 = 0.000000 y41 = 0.000000 y40 = 0.000000 z = 0101
--- y43 = 0.000000 y42 = 0.000000 y41 = 0.000000 y40 = 0.000000 z = 1101
--- y43 = 0.000000 y42 = 0.000000 y41 = 0.000000 y40 = 0.000000 z = 1110
--- y43 = 0.000000 y42 = 0.000000 y41 = 0.000000 y40 = 0.000000 z = 1010
--- y43 = 0.000000 y42 = 0.000000 y41 = 0.000000 y40 = 0.000000 z = 0100
--- y43 = 0.000000 y42 = 0.000000 y41 = 0.000000 y40 = 0.000000 z = 0011
--- y43 = 0.000000 y42 = 0.000000 y41 = 0.000000 y40 = 0.000000 z = 0011
--- y43 = 0.000000 y42 = 0.000000 y41 = 0.000000 y40 = 0.000000 z = 0010
--- y43 = 0.000000 y42 = 0.000000 y41 = 0.000000 y40 = 0.000000 z = 1001
--- y43 = 0.000000 y42 = 0.000000 y41 = 0.000000 y40 = 0.000000 z = 0111
--- y43 = 0.000000 y42 = 0.000000 y41 = 0.000000 y40 = 0.000000 z = 1000
--- y43 = 0.000000 y42 = 0.000000 y41 = 0.000000 y40 = 0.000000 z = 1111
--- y43 = 0.000000 y42 = 0.000000 y41 = 0.000000 y40 = 0.000000 z = 1011
--- y43 = 0.000000 y42 = 0.000000 y41 = 0.000000 y40 = 0.000000 z = 0110
--- y43 = 0.000000 y42 = 0.000000 y41 = 0.000000 y40 = 0.000000 z = 0000
--- y43 = 0.000000 y42 = 0.000000 y41 = 0.000000 y40 = 0.000000 z = 1100
