OCR_FPGA.sim/sim_1/behav/xsim/simulate.log
Vivado Simulator 2017.4
Time resolution is 1 ps
 y43 = 0.154785 y42 = 0.115723 y41 = 0.136230 y40 = 0.120117 z = 0001
 y43 = 0.154785 y42 = 0.115723 y41 = 0.136230 y40 = 0.120117 z = 0001
 y43 = 0.154785 y42 = 0.115723 y41 = 0.136230 y40 = 0.120117 z = 0001
 y43 = 0.154785 y42 = 0.115723 y41 = 0.136230 y40 = 0.120117 z = 0001
 y43 = 0.154785 y42 = 0.115723 y41 = 0.136230 y40 = 0.120117 z = 0001
 y43 = 0.154785 y42 = 0.115723 y41 = 0.136230 y40 = 0.120117 z = 0001
 y43 = 0.013184 y42 = 0.009277 y41 = 0.010254 y40 = 0.009766 z = 0111
 y43 = 3.320313 y42 = 15.187012 y41 = 15.729492 y40 = 15.256836 z = 0111
 y43 = 9.512207 y42 = 14.125977 y41 = 7.227051 y40 = 0.000000 z = 1000
 y43 = 0.000000 y42 = 4.133789 y41 = 5.085938 y40 = 0.000000 z = 1111
 y43 = 4.654785 y42 = 1.175781 y41 = 12.929688 y40 = 0.000000 z = 1011
 y43 = 0.000000 y42 = 0.000000 y41 = 0.000000 y40 = 0.000000 z = 0110
 y43 = 10.654785 y42 = 9.331543 y41 = 0.000000 y40 = 8.681152 z = 0000
 y43 = 0.000000 y42 = 0.000000 y41 = 0.000000 y40 = 0.000000 z = 1100
 y43 = 0.000000 y42 = 0.000000 y41 = 0.000000 y40 = 0.000000 z = 0001
 y43 = 0.000000 y42 = 0.000000 y41 = 0.000000 y40 = 0.000000 z = 0101
 y43 = 11.293457 y42 = 0.230469 y41 = 2.860840 y40 = 0.000000 z = 1101
 y43 = 0.000000 y42 = 0.000000 y41 = 0.842285 y40 = 7.639648 z = 1110
 y43 = 3.195801 y42 = 4.107910 y41 = 13.996582 y40 = 0.000000 z = 1010
 y43 = 0.000000 y42 = 0.000000 y41 = 0.000000 y40 = 0.000000 z = 0100
 y43 = 0.000000 y42 = 8.239746 y41 = 1.492188 y40 = 11.701660 z = 0011
 y43 = 0.000000 y42 = 0.000000 y41 = 0.000000 y40 = 0.000000 z = 0010
 y43 = 13.681152 y42 = 9.340332 y41 = 0.000000 y40 = 12.806152 z = 1001
 y43 = 6.803711 y42 = 0.000000 y41 = 0.000000 y40 = 2.502930 z = 0111
 y43 = 3.592773 y42 = 0.000000 y41 = 15.642090 y40 = 0.000000 z = 1000
 y43 = 0.000000 y42 = 0.000000 y41 = 0.000000 y40 = 0.000000 z = 1111
 y43 = 3.860840 y42 = 6.759766 y41 = 9.972656 y40 = 11.668457 z = 1011
 y43 = 12.431152 y42 = 11.716797 y41 = 7.769531 y40 = 0.000000 z = 0110
 y43 = 0.000000 y42 = 11.010742 y41 = 3.045898 y40 = 15.912109 z = 0000
 y43 = 7.527344 y42 = 0.000000 y41 = 0.000000 y40 = 0.000000 z = 1100
 y43 = 0.000000 y42 = 0.000000 y41 = 11.947266 y40 = 0.000000 z = 0001
 y43 = 0.000000 y42 = 0.000000 y41 = 8.741699 y40 = 0.000000 z = 0101
 y43 = 10.056641 y42 = 1.703613 y41 = 11.403320 y40 = 4.561523 z = 1101
 y43 = 0.334961 y42 = 0.000000 y41 = 11.441406 y40 = 9.049316 z = 1110
 y43 = 14.120605 y42 = 5.421387 y41 = 0.000000 y40 = 11.138184 z = 1010
 y43 = 7.667969 y42 = 0.000000 y41 = 0.000000 y40 = 0.000000 z = 0100
 y43 = 0.000000 y42 = 8.534180 y41 = 11.940430 y40 = 0.000000 z = 0011
 y43 = 14.322266 y42 = 0.000000 y41 = 7.752930 y40 = 4.571777 z = 0010
 y43 = 0.000000 y42 = 0.000000 y41 = 0.955078 y40 = 0.000000 z = 1001
 y43 = 0.000000 y42 = 8.234375 y41 = 1.100098 y40 = 0.000000 z = 0111
 y43 = 0.320313 y42 = 8.129395 y41 = 0.000000 y40 = 0.362305 z = 1000
 y43 = 0.000000 y42 = 6.563477 y41 = 0.000000 y40 = 2.252441 z = 1111
 y43 = 1.761719 y42 = 0.000000 y41 = 0.000000 y40 = 0.290039 z = 1011
 y43 = 3.488281 y42 = 0.000000 y41 = 10.882813 y40 = 7.547363 z = 0110
 y43 = 0.000000 y42 = 0.000000 y41 = 0.000000 y40 = 0.000000 z = 0000
 y43 = 0.000000 y42 = 6.088379 y41 = 0.000000 y40 = 0.000000 z = 1100
 y43 = 11.017578 y42 = 0.117676 y41 = 12.141602 y40 = 0.000000 z = 0001
 y43 = 0.000000 y42 = 0.000000 y41 = 0.000000 y40 = 0.000000 z = 0101
 y43 = 0.000000 y42 = 0.000000 y41 = 6.858398 y40 = 15.000000 z = 1101
 y43 = 0.000000 y42 = 0.000000 y41 = 8.176270 y40 = 0.000000 z = 1110
 y43 = 10.491211 y42 = 0.000000 y41 = 11.323242 y40 = 2.160645 z = 1010
 y43 = 6.412598 y42 = 14.421387 y41 = 0.000000 y40 = 7.131836 z = 0100
 y43 = 13.419922 y42 = 0.000000 y41 = 12.600098 y40 = 6.070313 z = 0011
 y43 = 5.854980 y42 = 2.224609 y41 = 10.908691 y40 = 0.000000 z = 0010
 y43 = 2.145020 y42 = 9.558594 y41 = 0.000000 y40 = 12.522461 z = 1001
 y43 = 9.856934 y42 = 7.608398 y41 = 0.000000 y40 = 15.680176 z = 0111
 y43 = 0.000000 y42 = 12.866699 y41 = 0.000000 y40 = 0.000000 z = 1000
 y43 = 6.562012 y42 